section,class,subclass,main-group,counter
G,6,F,1,3917
G,6,F,3,18005
G,6,F,5,52
G,6,F,7,1002
G,6,F,8,2284
G,6,F,9,8065
G,6,F,11,4993
G,6,F,12,3412
G,6,F,13,2203
G,6,F,15,1848
G,6,F,16,18043
G,6,F,17,1950
G,6,F,19,349
G,6,F,21,6815
G,6,F,30,2154
G,6,F,40,3963
G,6,F,111,275
G,6,F,113,53
G,6,F,115,24
G,6,F,117,12
G,6,F,119,241
